0,0.367879441171442
1,0.367879441171442
2,0.183939720585721
3,0.0613132401952404
4,0.0153283100488101
5,0.00306566200976202
6,0.00051094366829367
7,7.29919526133815e-05
8,9.12399407667269e-06
9,1.0137771196303e-06
10,1.01377711963029e-07
11,9.2161556330027e-09
12,7.6801296941689e-10
13,5.90779207243762e-11
14,4.21985148031262e-12
