1,7.37663037739308e-12
2,1.069611404722e-10
3,1.03395769123127e-09
4,7.49619326142668e-09
5,4.34779209162746e-08
6,2.10143284428661e-07
7,8.70593606918735e-07
8,3.15590182508043e-06
9,1.01690169919258e-05
10,2.94901492765848e-05
11,7.77467571837236e-05
12,0.000187887996527332
13,0.000419134761484048
14,0.000868207720216956
15,0.00167853492575278
16,0.00304234455292692
17,0.00518988188440474
18,0.00836147636931874
19,0.0127622534058023
20,0.0185052674384133
21,0.0255548931292375
22,0.0336859954885404
23,0.0424736464855508
24,0.0513223228367073
25,0.0595338944905805
26,0.0664031900087244
27,0.0713219448241855
28,0.073869157139335
29,0.073869157139335
30,0.0714068519013571
31,0.0667999582303018
32,0.060537462146211
33,0.0531995879466703
34,0.0453761191309835
35,0.0375973558513863
36,0.0302867588802834
37,0.0237382704737356
38,0.0181160485194299
39,0.0134709078734221
40,0.00976640820823108
41,0.00690794726923663
42,0.0047697731144729
43,0.00321682372836543
44,0.0021201792755136
45,0.00136633775533098
46,0.000861386845752138
47,0.000531494011208769
48,0.000321110965105297
49,0.000190045265062319
50,0.000110226253736145
51,6.2677673693102e-05
52,3.49548564826914e-05
53,1.91262422263783e-05
54,1.02715004549069e-05
55,5.41588205804177e-06
56,2.80465320862878e-06
57,1.42692882544272e-06
58,7.13464412721365e-07
59,3.50685897778298e-07
60,1.69498183926176e-07
61,8.05811038337565e-08
62,3.7691161470628e-08
63,1.73498997245745e-08
64,7.86167331269793e-09
65,3.50751578566524e-09
66,1.54118117854985e-09
67,6.67078420566358e-10
68,2.84489326418006e-10
69,1.19567977769887e-10
70,4.95353050760955e-11
71,2.02327302423493e-11
72,8.14929412539065e-12
73,3.23739081693601e-12
74,1.26870721204248e-12
75,4.90566788656427e-13
76,1.87189958829428e-13
77,7.05001143643287e-14
78,2.62115809816093e-14
79,9.62197276540113e-15
80,3.48796512745788e-15
81,1.24877763822565e-15
82,4.41640872055416e-16
83,1.54308256501288e-16
84,5.32730885540164e-17
85,1.81755243301942e-17
86,6.1289558787863e-18
87,2.04298529292878e-18
88,6.732565169879e-19
89,2.19375719018526e-19
90,7.06877316837473e-20
91,2.25268595475675e-20
92,7.10085790086374e-21
93,2.21424601209729e-21
94,6.8311845054067e-22
95,2.08530895428204e-22
96,6.29937079939362e-23
97,1.88331704311767e-23
98,5.57308104596045e-24
99,1.63251869023083e-24
100,4.73430420166944e-25
101,1.35935467176644e-25
102,3.86483190992426e-26
103,1.08815655716314e-26
104,3.03428270747416e-27
105,8.38039985873815e-28
106,2.29275090474911e-28
107,6.21399777922662e-29
108,1.66857347775533e-29
109,4.43932393164251e-30
110,1.17036721834212e-30
111,3.05771615602896e-31
112,7.91730076114641e-32
113,2.03187364666591e-32
114,5.16880138186939e-33
115,1.30343687021055e-33
116,3.25859217552631e-34
117,8.07685240087706e-35
118,1.9849891493681e-35
119,4.83736851526682e-36
120,1.16903072452279e-36
121,2.80180917447615e-37
122,6.66003820162369e-38
123,1.57025290932595e-38
124,3.67236567503647e-39
125,8.51988836608442e-40
126,1.96092668743215e-40
127,4.4777066090971e-41
128,1.01448040362355e-41
129,2.28061486085916e-42
130,5.08752545883977e-43
131,1.12624609394157e-43
132,2.47432853972012e-44
133,5.39515245502897e-45
134,1.16760762086447e-45
135,2.50819414852366e-46
136,5.34835516964608e-47
137,1.13213357605647e-47
138,2.3791212830172e-48
139,4.96363433147474e-49
140,1.02818139723407e-49
141,2.1146993276445e-50
142,4.31875214800647e-51
143,8.75830855190097e-52
144,1.76382602781346e-52
145,3.52765205562686e-53
146,7.00698011049145e-54
147,1.38232940955279e-54
148,2.70861843763714e-55
149,5.27180769741493e-56
150,1.01921615483348e-56
151,1.95743499934907e-57
152,3.73457993296883e-58
153,7.07861555922147e-59
154,1.33298604686639e-59
155,2.49397389413715e-60
156,4.63623352115262e-61
157,8.56374344671488e-62
158,1.57182632882737e-62
159,2.86685305257833e-63
160,5.19617115779801e-64
161,9.35956295504015e-65
162,1.67547731911216e-65
163,2.98091056774551e-66
164,5.27112234540374e-67
165,9.26439684949727e-68
166,1.61847896768324e-68
167,2.81053233909061e-69
168,4.85151415676383e-70
169,8.32508346426908e-71
170,1.42016129684593e-71
171,2.40846067886148e-72
172,4.06077672598745e-73
173,6.8070823730425e-74
174,1.13451372884042e-74
175,1.88005132207835e-75
176,3.09781183751559e-76
177,5.07551092022306e-77
178,8.26909082508278e-78
179,1.33968510573968e-78
180,2.1583815592472e-79
181,3.45818039879383e-80
182,5.51028744862776e-81
183,8.73214950875387e-82
184,1.37626269431447e-82
185,2.15738476406058e-83
186,3.36366441708379e-84
187,5.21637797301773e-85
188,8.04654049029313e-86
189,1.23465436094439e-86
190,1.88447244565195e-87
191,2.86124088606851e-88
192,4.321665921666e-89
193,6.49369490820272e-90
194,9.70706970813787e-91
195,1.44361549505641e-91
196,2.13596170186917e-92
197,3.14430910427446e-93
198,4.60530121333112e-94
199,6.71124297420145e-95
200,9.73130231259242e-96
201,1.40401874161773e-96
202,2.01567047063932e-97
203,2.87952924377051e-98
204,4.09344843477185e-99
205,5.79073193211629e-100
206,8.15200126365882e-101
207,1.14206780988452e-101
208,1.59230608108906e-102
209,2.20941992112832e-103
210,3.05110370060583e-104
211,4.19346006244408e-105
212,5.73633687787146e-106
213,7.81003612480127e-107
214,1.05836938139837e-107
215,1.42756800281638e-108
216,1.9166422260035e-109
217,2.56141126977409e-110
218,3.40738196437834e-111
219,4.51205830899451e-112
220,5.94771322549259e-113
221,7.80469156286373e-114
222,1.01953178073435e-114
223,1.32584850409412e-115
224,1.71650029547899e-116
225,2.21237815861752e-117
226,2.83889232742926e-118
227,3.62677874429277e-119
228,4.61300805195135e-120
229,5.84180058980832e-121
230,7.36574856975739e-122
231,9.24704365900265e-123
232,1.15588045737546e-123
233,1.43864949630407e-124
234,1.78294168345381e-125
235,2.20022590724092e-126
236,2.70366742838936e-127
237,3.3082850389568e-128
238,4.03110361889717e-129
239,4.89129727816035e-130
240,5.91031754444304e-131
241,7.1120003646828e-132
242,8.52264506511522e-133
243,1.01710578966401e-133
244,1.20885524181371e-134
245,1.43088987806542e-135
246,1.68682140097137e-136
247,1.98047856794196e-137
248,2.31588219638392e-138
249,2.69721219659168e-139
250,3.12876614804641e-140
251,3.61490909535228e-141
252,4.16001443512766e-142
253,4.76839599283386e-143
254,5.44423164536204e-144
255,6.19147912609729e-145
256,7.01378494753228e-146
257,7.91438768398585e-147
258,8.89601716417111e-148
259,9.96079141934193e-149
260,1.11101135061894e-149
261,1.23445705624313e-150
262,1.36638376454395e-151
263,1.50665890386982e-152
264,1.65504197773572e-153
265,1.81117801337119e-154
266,1.97459257096864e-155
267,2.14468856022795e-156
268,2.32074508382893e-157
269,2.50191849185999e-158
270,2.68724578755349e-159
271,2.8756504737657e-160
272,3.06595087276483e-161
273,3.25687089048292e-162
274,3.44705313226259e-163
275,3.63507421220476e-164
276,3.81946203456288e-165
277,3.99871476542683e-166
278,4.17132115817883e-167
279,4.33578184900322e-168
280,4.49063120075339e-169
281,4.6344592463293e-170
282,4.765933267501e-171
283,4.88381854266935e-172
284,4.98699780765499e-173
285,5.07448899726308e-174
286,5.14546087135095e-175
287,5.1992461766266e-176
288,5.23535205285278e-177
289,5.25346745788015e-178
290,5.25346745787961e-179
291,5.23541430510359e-180
292,5.19955530301452e-181
293,5.14631753540593e-182
294,5.07629960975428e-183
295,4.99026063331858e-184
296,4.8891067015616e-185
297,4.77387523048115e-186
298,4.64571750617278e-187
299,4.50587985548538e-188
300,4.35568386030232e-189
301,4.19650604480984e-190
302,4.02975746024763e-191
303,3.85686357581469e-192
304,3.67924485850764e-193
305,3.49829839005588e-194
306,3.31538082717766e-195
307,3.13179296378318e-196
308,2.94876610226366e-197
309,2.76745038723766e-198
310,2.58890520096421e-199
311,2.41409166649384e-200
312,2.24386725411303e-201
313,2.07898243991291e-202
314,1.92007932348646e-203
315,1.76769207559075e-204
316,1.62224905671298e-205
317,1.48407642412239e-206
318,1.35340302828772e-207
319,1.2303663893523e-208
320,1.11501954035064e-209
321,1.00733852555055e-210
322,9.07230349098214e-212
323,8.14541180304993e-213
324,7.29064636692652e-214
325,6.50549983510359e-215
326,5.78710108030676e-216
327,5.13229147794815e-217
328,4.53769673355153e-218
329,3.99979347334341e-219
330,3.51497002202877e-220
331,3.07958098606781e-221
332,2.68999543963766e-222
333,2.34263867115583e-223
334,2.03402758872814e-224
335,1.76080000218233e-225
336,1.51973809712157e-226
337,1.307786493072e-227
338,1.12206533429267e-228
339,9.59878899542418e-230
340,8.18720237845089e-231
341,6.96272343035297e-232
342,5.90406372749267e-233
343,4.99177399700569e-234
344,4.20818156724288e-235
345,3.53731204203062e-236
346,2.96479911037229e-237
347,2.47778600002289e-238
348,2.06482166668562e-239
349,1.71575439352093e-240
350,1.42162506891746e-241
351,1.17456202275242e-242
352,9.67678939199394e-244
353,7.94977032203375e-245
354,6.51252371014126e-246
355,5.32008979138303e-247
356,4.33378100983487e-248
357,3.52043835532766e-249
358,2.85175174034957e-250
359,2.30364346713442e-251
360,1.85571279296938e-252
361,1.49073880875661e-253
362,1.19423827220843e-254
363,9.54074652728494e-256
364,7.60114421129873e-257
365,6.03926526377179e-258
366,4.78521018167655e-259
367,3.78122875391336e-260
368,2.97977265933381e-261
369,2.34182675123828e-262
370,1.83548583205136e-263
371,1.43474633772204e-264
372,1.11848504822426e-265
373,8.69599635348653e-267
374,6.74288487302442e-268
375,5.21449763513841e-269
376,4.02181998454826e-270
377,3.09370768042185e-271
378,2.37347943736043e-272
379,1.81611883069812e-273
380,1.38598542342745e-274
381,1.05494953489228e-275
382,8.00877919159041e-277
383,6.06408868292802e-278
384,4.57965030741948e-279
385,3.4496067250692e-280
386,2.59167344629526e-281
387,1.94208087706902e-282
388,1.4515552947165e-283
389,1.08213633796368e-284
390,8.0466548207545e-286
391,5.96810715605785e-287
392,4.41518131443038e-288
393,3.25802183507629e-289
394,2.39803637607107e-290
395,1.76058366850815e-291
396,1.28931632289741e-292
397,9.41817968866995e-294
398,6.86249273797513e-295
399,4.9877766767242e-296
400,3.61613809062505e-297
401,2.61516221017775e-298
402,1.88655980336189e-299
403,1.3575740520471e-300
404,9.74496225479382e-302
405,6.97787420713597e-303
406,4.98419586224092e-304
407,3.55139262911471e-305
408,2.52427417265487e-306
409,1.78982765298297e-307
410,1.26597565698799e-308
411,8.93267495198304e-310
412,6.28756246620123e-311
413,4.41499543631673e-312
414,3.09262965343376e-313
415,2.16111469735402e-314
416,1.50654630577172e-315
417,1.04771802949261e-316
418,7.26885682327955e-318
419,5.03097165847225e-319
420,3.4737755559098e-320
421,2.39127772587163e-321
422,1.63041663127611e-322
423,9.88131291682493e-324
424,0
425,0
426,0
427,0
428,0
429,0
430,0
431,0
432,0
433,0
434,0
435,0
436,0
437,0
438,0
439,0
440,0
441,0
442,0
443,0
444,0
445,0
446,0
447,0
448,0
449,0
450,0
451,0
452,0
453,0
454,0
455,0
456,0
457,0
458,0
459,0
460,0
461,0
462,0
463,0
464,0
465,0
466,0
467,0
468,0
469,0
470,0
471,0
472,0
473,0
474,0
475,0
476,0
477,0
478,0
479,0
480,0
481,0
482,0
483,0
484,0
485,0
486,0
487,0
488,0
489,0
490,0
491,0
492,0
493,0
494,0
495,0
496,0
497,0
498,0
499,0
500,0
501,0
502,0
503,0
504,0
505,0
506,0
507,0
508,0
509,0
510,0
511,0
512,0
513,0
514,0
515,0
516,0
517,0
518,0
519,0
520,0
521,0
522,0
523,0
524,0
525,0
526,0
527,0
528,0
529,0
530,0
531,0
532,0
533,0
534,0
535,0
536,0
537,0
538,0
539,0
540,0
541,0
542,0
543,0
544,0
545,0
546,0
547,0
548,0
549,0
550,0
551,0
552,0
553,0
554,0
555,0
556,0
557,0
558,0
559,0
560,0
561,0
562,0
563,0
564,0
565,0
566,0
567,0
568,0
569,0
570,0
571,0
572,0
573,0
574,0
575,0
576,0
577,0
578,0
579,0
580,0
581,0
582,0
583,0
584,0
585,0
586,0
587,0
588,0
589,0
590,0
591,0
592,0
593,0
594,0
595,0
596,0
597,0
598,0
599,0
600,0
601,0
602,0
603,0
604,0
605,0
606,0
607,0
608,0
609,0
610,0
611,0
612,0
613,0
614,0
615,0
616,0
617,0
618,0
619,0
620,0
621,0
622,0
623,0
624,0
625,0
626,0
627,0
628,0
629,0
630,0
631,0
632,0
633,0
634,0
635,0
636,0
637,0
638,0
639,0
640,0
641,0
642,0
643,0
644,0
645,0
646,0
647,0
648,0
649,0
650,0
651,0
652,0
653,0
654,0
655,0
656,0
657,0
658,0
659,0
660,0
661,0
662,0
663,0
664,0
665,0
666,0
667,0
668,0
669,0
670,0
671,0
672,0
673,0
674,0
675,0
676,0
677,0
678,0
679,0
680,0
681,0
682,0
683,0
684,0
685,0
686,0
687,0
688,0
689,0
690,0
691,0
692,0
693,0
694,0
695,0
696,0
697,0
698,0
699,0
700,0
701,0
702,0
703,0
704,0
705,0
706,0
707,0
708,0
709,0
710,0
711,0
712,0
713,0
714,0
715,0
716,0
717,0
718,0
719,0
720,0
721,0
722,0
723,0
724,0
725,0
726,0
727,0
728,0
729,0
730,0
731,0
732,0
733,0
734,0
735,0
736,0
737,0
738,0
739,0
740,0
741,0
742,0
743,0
744,0
745,0
746,0
747,0
748,0
749,0
750,0
751,0
752,0
753,0
754,0
755,0
756,0
757,0
758,0
759,0
760,0
761,0
762,0
763,0
764,0
765,0
766,0
767,0
768,0
769,0
770,0
771,0
772,0
773,0
774,0
775,0
776,0
777,0
778,0
779,0
780,0
781,0
782,0
783,0
784,0
785,0
786,0
787,0
788,0
789,0
790,0
791,0
792,0
793,0
794,0
795,0
796,0
797,0
798,0
799,0
800,0
801,0
802,0
803,0
804,0
805,0
806,0
807,0
808,0
809,0
810,0
811,0
812,0
813,0
814,0
815,0
816,0
817,0
818,0
819,0
820,0
821,0
822,0
823,0
824,0
825,0
826,0
827,0
828,0
829,0
830,0
831,0
832,0
833,0
834,0
835,0
836,0
837,0
838,0
839,0
840,0
841,0
842,0
843,0
844,0
845,0
