1,0.270670566473225
2,0.270670566473225
3,0.180447044315484
4,0.0902235221577418
5,0.0360894088630967
6,0.0120298029543656
7,0.00343708655839016
8,0.000859271639597541
9,0.000190949253243898
10,3.81898506487796e-05
11,6.94360920886902e-06
12,1.15726820147817e-06
13,1.78041261765872e-07
