1,0.0732625555549367
2,0.146525111109873
3,0.195366814813165
4,0.195366814813165
5,0.156293451850532
6,0.104195634567021
7,0.0595403626097264
8,0.0297701813048632
9,0.0132311916910503
10,0.00529247667642012
11,0.00192453697324368
12,0.00064151232441456
13,0.000197388407512172
14,5.63966878606207e-05
15,1.50391167628322e-05
16,3.75977919070804e-06
17,8.84653927225425e-07
18,1.96589761605649e-07
19,4.13873182327683e-08
20,8.27746364655366e-09
21,1.5766597422007e-09
22,2.86665407672854e-10
23,4.98548535083225e-11
24,8.30914225138705e-12
25,1.32946276022193e-12
26,2.04532732341836e-13
27,3.03011455321241e-14
28,4.32873507601768e-15
29,5.97066907036924e-16
30,7.9608920938256e-17
31,1.02721188307428e-17
32,1.28401485384285e-18
33,1.55638164102163e-19
34,1.83103722473132e-20
35,2.09261397112152e-21
36,2.32512663457946e-22
37,2.51365041576157e-23
38,2.64594780606481e-24
39,2.71379262160493e-25
40,2.7137926216049e-26
41,2.64760255766338e-27
42,2.52152624539367e-28
43,2.3456058096685e-29
44,2.1323689178805e-30
45,1.89543903811598e-31
46,1.6482078592313e-32
47,1.40273009296279e-33
48,1.16894174413566e-34
49,9.54238158478088e-36
50,7.63390526782467e-37
51,5.98737668064691e-38
52,4.60567436972836e-39
53,3.47598065639879e-40
54,2.57480048622131e-41
55,1.87258217179728e-42
56,1.33755869414095e-43
57,9.386376800989e-45
58,6.4733633110269e-46
59,4.38872088883185e-47
60,2.9258139258879e-48
61,1.91856650877898e-49
62,1.23778484437352e-50
63,7.85895139284761e-52
64,4.91184462052986e-53
65,3.02267361263374e-54
66,1.8319234015962e-55
67,1.09368561289325e-56
68,6.43344478172482e-58
69,3.7295332067971e-59
70,2.13116183245543e-60
71,1.20065455349607e-61
72,6.67030307497817e-63
73,3.65496058902907e-64
74,1.9756543724482e-65
75,1.05368233197234e-66
76,5.54569648406508e-68
77,2.88088129042334e-69
78,1.47737502072993e-70
79,7.48037985179728e-72
80,3.74018992589867e-73
81,1.84700737081408e-74
82,9.00979205275167e-76
83,4.34206845915733e-77
84,2.06765164721788e-78
85,9.73012539867194e-80
86,4.5256397203127e-81
87,2.08075389439663e-82
88,9.45797224725689e-84
89,4.25077404371118e-85
90,1.88923290831612e-86
91,8.30432047611434e-88
92,3.61057412004989e-89
93,1.5529351053977e-90
94,6.60823449105439e-92
95,2.78241452254924e-93
96,1.15933938439548e-94
97,4.78078096657941e-96
98,1.95133917003244e-97
99,7.88419866679761e-99
100,3.15367946671903e-100
101,1.24898196701742e-101
102,4.89796849810783e-103
103,1.90212368858554e-104
104,7.31586034071323e-106
105,2.78699441550991e-107
106,1.05169600585276e-108
