1,0.149361205103592
2,0.224041807655388
3,0.224041807655388
4,0.168031355741541
5,0.100818813444924
6,0.0504094067224623
7,0.0216040314524838
8,0.00810151179468143
9,0.00270050393156048
10,0.000810151179468142
11,0.00022095032167313
12,5.52375804182826e-05
13,1.27471339426806e-05
14,2.73152870200298e-06
15,5.46305740400597e-07
16,1.02432326325112e-07
17,1.8076292880902e-08
18,3.01271548015035e-09
19,4.75691917918478e-10
20,7.13537876877713e-11
21,1.01933982411102e-11
22,1.39000885106048e-12
23,1.81305502312236e-13
24,2.26631877890298e-14
25,2.71958253468355e-15
26,3.13797984771182e-16
27,3.4866442752353e-17
28,3.73569029489499e-18
29,3.86450720161552e-19
30,3.86450720161545e-20
31,3.73984567898275e-21
32,3.50610532404631e-22
33,3.18736847640576e-23
34,2.81238394976978e-24
35,2.41061481408839e-25
36,2.00884567840697e-26
37,1.62879379330296e-27
38,1.28588983681812e-28
39,9.89146028321628e-30
40,7.41859521241223e-31
41,5.42824039932612e-32
42,3.87731457094724e-33
43,2.7051031890329e-34
44,1.844388537977e-35
45,1.22959235865132e-36
46,8.01908059989991e-38
47,5.11856208504253e-39
48,3.1991013031516e-40
49,1.95863345090911e-41
50,1.17518007054547e-42
51,6.91282394438519e-44
52,3.98816766022229e-45
53,2.25745339257859e-46
54,1.2541407736548e-47
55,6.84076785629889e-49
56,3.66469706587429e-50
57,1.92878792940759e-51
58,9.97648929003919e-53
59,5.07279116442659e-54
60,2.53639558221335e-55
61,1.24740766338361e-56
62,6.03584353250138e-58
63,2.87421120595302e-59
64,1.3472865027905e-60
