1,0.270670566473225
2,0.270670566473225
3,0.180447044315484
4,0.0902235221577418
5,0.0360894088630967
6,0.0120298029543656
7,0.00343708655839016
8,0.000859271639597541
9,0.000190949253243898
10,3.81898506487796e-05
11,6.94360920886902e-06
12,1.15726820147817e-06
13,1.78041261765872e-07
14,2.54344659665533e-08
15,3.39126212887376e-09
16,4.23907766109221e-10
17,4.98715018952022e-11
18,5.54127798835581e-12
19,5.83292419826927e-13
20,5.83292419826922e-14
21,5.55516590311358e-15
22,5.05015082101237e-16
23,4.3914354965325e-17
24,3.65952958044372e-18
