{
  "social": {
    "user_activity": 60,
    "newspaper": 0,
    "social_network": 80,
    "media_streaming": 20,
    "collaborative": 0
  },
  "streaming": {
    "user_activity": 30,
    "newspaper": 0,
    "social_network": 20,
    "media_streaming": 80,
    "collaborative": 0
  },
  "business": {
    "user_activity": 20,
    "newspaper": 40,
    "social_network": 10,
    "media_streaming": 10,
    "collaborative": 40
  },
  "custom": {
    "user_activity": 100,
    "newspaper": 0,
    "social_network": 0,
    "media_streaming": 100,
    "collaborative": 0
  },
  "medical_voice": {
    "user_activity": 25,
    "time": 10,
    "data_rate": 128
  },
  "medical_video": {
    "user_activity": 25,
    "time": 300,
    "data_rate": 3000
  },
  "medical_data": {
    "message_per_h": 10,
    "message_size": 100,
    "transmission_mode": "downlink"
  },
  "iot": {
    "message_per_h": 10,
    "message_size": 20,
    "transmission_mode": "uplink"
  },
  "green": {
    "message_per_h": 600,
    "message_size": 120,
    "transmission_mode": "bidirectional"
  }
}
